<svg width="85" height="22" viewBox="0 0 85 22" fill="none" xmlns="http://www.w3.org/2000/svg">
<g clip-path="url(#clip0_804:20435)">
<path d="M34.6562 14.306V7.19357H36.046V14.3112H34.6562V14.306ZM35.6674 11.1385C35.6674 10.2306 35.7607 9.47393 35.9474 8.87383C36.1341 8.27374 36.3986 7.82497 36.7408 7.52753C37.0779 7.23009 37.4771 7.08398 37.9386 7.08398C38.0735 7.08398 38.2031 7.09442 38.3224 7.11529C38.4416 7.13617 38.5609 7.16226 38.6802 7.19879L38.6283 8.59205C38.4987 8.55552 38.3535 8.52943 38.1979 8.49812C38.0423 8.47203 37.9023 8.45638 37.7779 8.45638C37.3786 8.45638 37.0519 8.56074 36.7978 8.77469C36.5438 8.98863 36.3571 9.29651 36.2326 9.69831C36.1082 10.1001 36.0511 10.5802 36.0511 11.1385H35.6674Z" fill="white"/>
<path d="M42.6732 14.4992C42.0665 14.4992 41.5221 14.3426 41.0294 14.0295C40.542 13.7165 40.1531 13.2781 39.8679 12.7146C39.5827 12.151 39.4375 11.5039 39.4375 10.7682C39.4375 9.98543 39.5775 9.3175 39.8627 8.75915C40.1479 8.2008 40.5316 7.77291 41.0191 7.47025C41.5065 7.17281 42.0562 7.02148 42.668 7.02148C43.2125 7.02148 43.6844 7.13107 44.0733 7.35545C44.4622 7.57983 44.7785 7.87727 45.0171 8.25298C45.2556 8.62869 45.4215 9.05659 45.5097 9.53145C45.5978 10.0063 45.6134 10.502 45.5563 11.0082H40.5524V10.1994H44.6126L44.2755 10.4185C44.2911 10.1524 44.2755 9.88628 44.234 9.62016C44.1926 9.35403 44.1148 9.10877 43.9955 8.88439C43.8762 8.66 43.7155 8.48258 43.5029 8.34691C43.2903 8.21124 43.0207 8.1434 42.694 8.1434C42.2843 8.1434 41.9421 8.24776 41.6621 8.45128C41.3872 8.66 41.1798 8.93657 41.0346 9.28097C40.8946 9.62537 40.822 10.0063 40.822 10.4185V10.9873C40.822 11.4465 40.8894 11.8483 41.0294 12.2032C41.1643 12.558 41.3717 12.8346 41.6413 13.0381C41.911 13.2416 42.2532 13.346 42.6732 13.346C43.0777 13.346 43.4147 13.252 43.6792 13.059C43.9437 12.8659 44.1096 12.5789 44.1718 12.198H45.5926C45.52 12.6624 45.3489 13.0642 45.0845 13.4086C44.82 13.753 44.483 14.0191 44.0681 14.207C43.6636 14.4053 43.197 14.4992 42.6732 14.4992Z" fill="white"/>
<path d="M47.0586 8.16414V7.21442H50.9477V8.16414H47.0586ZM48.1683 14.306V6.21774C48.1683 5.72723 48.2616 5.32543 48.4483 5.01755C48.635 4.70968 48.8891 4.48529 49.2002 4.33397C49.5113 4.18786 49.8587 4.1148 50.2321 4.1148C50.4447 4.1148 50.6677 4.13046 50.8958 4.15655C51.124 4.18786 51.347 4.2296 51.5648 4.287L51.3003 5.37761C51.1655 5.33065 51.0255 5.2889 50.8855 5.25759C50.7455 5.22628 50.6106 5.21584 50.4862 5.21584C50.3358 5.21584 50.1906 5.24193 50.0454 5.29934C49.9054 5.35674 49.7861 5.45588 49.698 5.60721C49.6098 5.75332 49.5632 5.96205 49.5632 6.2334V14.3008H48.1683V14.306ZM53.7478 5.70114C53.4678 5.70114 53.25 5.62287 53.0945 5.46632C52.9337 5.30977 52.8559 5.10104 52.8559 4.83491C52.8559 4.57922 52.9337 4.37571 53.0945 4.22438C53.2552 4.07305 53.473 4 53.7478 4C54.0227 4 54.2353 4.07305 54.396 4.22438C54.5568 4.37571 54.6346 4.57922 54.6346 4.83491C54.6346 5.10104 54.5568 5.30977 54.396 5.46632C54.2405 5.62287 54.0227 5.70114 53.7478 5.70114ZM53.053 14.306V7.19355H54.4427V14.3112H53.053V14.306Z" fill="white"/>
<path d="M57.5078 14.3061V7.21456H58.716L58.8975 8.74871V14.3061H57.5078ZM62.4444 14.3061V10.1472C62.4444 9.53145 62.2992 9.06702 62.0088 8.74871C61.7184 8.4304 61.3243 8.27386 60.8317 8.27386C60.4428 8.27386 60.1005 8.37822 59.8102 8.59217C59.5198 8.80611 59.2968 9.11921 59.136 9.52623C58.9753 9.93847 58.8975 10.4394 58.8975 11.0291H58.3997C58.3997 10.1576 58.5086 9.42708 58.7316 8.8322C58.9546 8.23733 59.2709 7.78856 59.6857 7.48069C60.1005 7.17281 60.5983 7.02148 61.1791 7.02148C61.7443 7.02148 62.2266 7.15194 62.6207 7.40241C63.0148 7.65811 63.3155 8.01816 63.5177 8.4878C63.7252 8.95744 63.8237 9.51057 63.8237 10.142V14.3009H62.4444V14.3061Z" fill="white"/>
<path d="M69.0053 14.4992C68.3986 14.4992 67.8541 14.3426 67.3615 14.0295C66.874 13.7165 66.4851 13.2781 66.1999 12.7146C65.9147 12.1562 65.7695 11.5039 65.7695 10.7682C65.7695 9.98543 65.9095 9.3175 66.1947 8.75915C66.4799 8.2008 66.8637 7.77291 67.3511 7.47025C67.8385 7.17281 68.3882 7.02148 69.0001 7.02148C69.5445 7.02148 70.0164 7.13107 70.4053 7.35545C70.7942 7.57983 71.1105 7.87727 71.3491 8.25298C71.5876 8.62869 71.7535 9.05659 71.8417 9.53145C71.9298 10.0063 71.9454 10.502 71.8884 11.0082H66.874V10.1994H70.9342L70.5972 10.4185C70.6127 10.1524 70.5972 9.88628 70.5557 9.62016C70.5142 9.35403 70.4364 9.10877 70.3172 8.88439C70.1979 8.66 70.0372 8.48258 69.8246 8.34691C69.612 8.21124 69.3423 8.1434 69.0156 8.1434C68.606 8.1434 68.2637 8.24776 67.9837 8.45128C67.7089 8.66 67.5015 8.93657 67.3563 9.28097C67.2163 9.62537 67.1437 10.0063 67.1437 10.4185V10.9873C67.1437 11.4465 67.2111 11.8483 67.3511 12.2032C67.4859 12.558 67.6933 12.8346 67.963 13.0381C68.2326 13.2416 68.5749 13.346 68.9949 13.346C69.3994 13.346 69.7364 13.252 70.0009 13.059C70.2653 12.8659 70.4313 12.5789 70.4935 12.198H71.9143C71.8417 12.6624 71.6706 13.0642 71.4061 13.4086C71.1417 13.753 70.8046 14.0191 70.3898 14.207C69.9957 14.4053 69.529 14.4992 69.0053 14.4992Z" fill="white"/>
<path d="M74.1016 14.306V7.19357H75.4913V14.3112H74.1016V14.306ZM75.1127 11.1385C75.1127 10.2306 75.2061 9.47393 75.3927 8.87383C75.5794 8.27374 75.8439 7.82497 76.1861 7.52753C76.5232 7.23009 76.9225 7.08398 77.384 7.08398C77.5188 7.08398 77.6484 7.09442 77.7677 7.11529C77.887 7.13617 78.0062 7.16226 78.1255 7.19879L78.0736 8.59205C77.944 8.55552 77.7988 8.52943 77.6432 8.49812C77.4877 8.47203 77.3477 8.45638 77.2232 8.45638C76.8239 8.45638 76.4972 8.56074 76.2432 8.77469C75.9891 8.98863 75.8024 9.29651 75.6779 9.69831C75.5535 10.1001 75.4965 10.5802 75.4965 11.1385H75.1127Z" fill="white"/>
<path d="M78.4724 7.21484H80.0332L82.1592 13.0853H81.874L83.58 7.21484H85.0009L82.3252 15.6736C82.0814 16.4407 81.7651 17.0147 81.3814 17.3956C80.9977 17.7765 80.5154 17.9696 79.9398 17.9696C79.6183 17.9696 79.3072 17.9278 79.0116 17.8444C78.7161 17.7609 78.4153 17.6356 78.1094 17.4739V16.2111C78.3738 16.3989 78.6279 16.5346 78.8716 16.6181C79.1154 16.7016 79.3694 16.7433 79.6339 16.7433C79.8984 16.7433 80.1213 16.665 80.3132 16.5033C80.4999 16.3415 80.6606 16.1328 80.7903 15.8666C80.9199 15.6057 81.0288 15.3187 81.1221 15.0056L81.3347 14.3064L78.4724 7.21484Z" fill="white"/>
<path d="M23.2105 15.1348C23.2105 15.1296 23.2156 15.1296 23.2156 15.1243C23.2156 15.1191 23.2208 15.1191 23.2208 15.1139C23.2519 15.0774 23.2779 15.0409 23.2934 14.9991C23.2934 14.9991 23.2934 14.9991 23.2934 14.9939C23.3038 14.973 23.309 14.9521 23.3142 14.9313C23.3142 14.9208 23.3194 14.9104 23.3194 14.9C23.3401 14.8165 23.3349 14.733 23.3038 14.6547C23.1223 14.1799 22.9356 13.705 22.7541 13.2301C22.3134 12.0873 21.8726 10.9498 21.4318 9.80699C20.8977 8.41894 20.3636 7.03089 19.8244 5.64807C19.3629 4.4531 18.9013 3.25812 18.4398 2.06837C18.2169 1.48915 18.0094 0.89949 17.7657 0.325486C17.7605 0.31505 17.7605 0.309832 17.7554 0.299395C17.7554 0.294177 17.7502 0.294177 17.7502 0.288959C17.745 0.273304 17.7398 0.262868 17.7294 0.252431C17.7294 0.247213 17.7242 0.241995 17.7242 0.241995C17.7139 0.22634 17.7035 0.205467 17.6931 0.189813C17.6828 0.174158 17.6724 0.158503 17.6568 0.148067C17.6517 0.142849 17.6465 0.13763 17.6413 0.132412C17.6361 0.127194 17.6309 0.116758 17.6205 0.111539C17.5842 0.0802301 17.5428 0.0593572 17.5013 0.0384843C17.4961 0.0332661 17.4857 0.0332661 17.4805 0.0280479C17.465 0.0228297 17.4494 0.0176115 17.4339 0.0123933C17.4235 0.00717505 17.4131 0.00717505 17.4027 0.00195683C17.3924 0.00195683 17.3872 0.00195683 17.3768 0.00195683C17.3716 0.00195683 17.3665 0.00195683 17.3613 0.00195683C17.242 -0.0084796 17.1331 0.0228297 17.045 0.0958847C17.019 0.116758 16.9931 0.13763 16.9724 0.158503C16.0442 1.11344 15.116 2.07359 14.1878 3.02852C12.7099 4.55224 11.2372 6.07074 9.75938 7.59446C9.46381 7.90234 9.16306 8.21021 8.86749 8.51809C8.79489 8.53374 8.71711 8.55461 8.64451 8.57027C8.18819 8.67463 7.73187 8.77378 7.27555 8.87814C5.88066 9.19124 4.48059 9.50955 3.0857 9.82264C2.48937 9.95831 1.88786 10.094 1.29153 10.2297C1.00633 10.2923 0.710762 10.3497 0.430748 10.4227C0.373708 10.4227 0.316668 10.4436 0.259628 10.4697C0.150733 10.5114 0.0781367 10.6002 0.0314676 10.7097C0.0159112 10.741 0.00554029 10.7724 0.000354833 10.8089C0.000354833 10.8141 0.000354833 10.8141 0.000354833 10.8193C-0.0307579 10.9498 -0.00483063 11.0854 0.114435 11.2055C0.11962 11.2107 0.124806 11.2159 0.135177 11.2211C0.145548 11.2263 0.150733 11.2368 0.155919 11.242C0.596682 11.5968 1.03745 11.9517 1.47821 12.3065C2.53086 13.1519 3.58351 13.9972 4.63615 14.8478C5.91178 15.8758 7.19258 16.9038 8.46821 17.9317C9.56752 18.8188 10.6668 19.7007 11.7713 20.5878C12.3106 21.0209 12.8344 21.4645 13.384 21.8872C13.3892 21.8924 13.3996 21.8976 13.4048 21.9028C13.4255 21.9185 13.4514 21.9341 13.4774 21.9498C13.607 22.0228 13.7781 22.0385 13.9129 21.9654C13.9752 21.9393 14.027 21.9028 14.0685 21.8558C15.0693 21.1201 16.0701 20.3843 17.0709 19.6538C18.7095 18.4484 20.3533 17.2482 21.9919 16.0428C22.3497 15.7766 22.7127 15.5157 23.0705 15.2496C23.1119 15.2235 23.1534 15.1922 23.1897 15.1557C23.1949 15.1504 23.1949 15.1504 23.2001 15.1452C23.2053 15.1348 23.2105 15.1348 23.2105 15.1348ZM18.7769 5.46543C19.311 6.85348 19.8451 8.24152 20.3844 9.62435C20.8459 10.8193 21.3074 12.0143 21.7689 13.204C21.883 13.5015 21.9971 13.7989 22.1111 14.0911C21.4733 13.8928 20.8303 13.6946 20.1925 13.491C18.7095 13.0266 17.2264 12.5674 15.7434 12.103C15.5567 12.0456 15.37 11.9882 15.1834 11.9308C15.4582 10.7306 15.733 9.53564 16.0079 8.33545C16.4901 6.23251 16.9724 4.12435 17.4546 2.02141C17.4546 2.02662 17.4598 2.03184 17.4598 2.03706C17.8954 3.18507 18.3361 4.32264 18.7769 5.46543ZM3.55239 10.6628C5.10284 10.3132 6.6533 9.96353 8.20375 9.61391C8.48376 9.55129 8.75859 9.48867 9.03861 9.42606C10.615 10.3706 12.1914 11.3151 13.7626 12.2595C13.8818 12.3326 14.0011 12.4057 14.1204 12.4735C13.9803 13.1727 13.8352 13.8668 13.6951 14.566C13.3892 14.4721 13.0833 14.3729 12.7773 14.279C11.6936 13.9398 10.615 13.6006 9.53122 13.2562C8.22967 12.844 6.92813 12.437 5.62139 12.0247C4.49096 11.6699 3.36053 11.3151 2.22492 10.9602C2.67087 10.8611 3.11163 10.7619 3.55239 10.6628ZM14.587 20.3269C14.4626 20.4156 14.3381 20.5095 14.2137 20.5983C14.2915 19.0798 14.3744 17.556 14.4522 16.0375C14.4574 15.8914 14.4678 15.7453 14.473 15.6044C15.3389 15.5731 16.2049 15.5366 17.0709 15.5053C18.5124 15.4479 19.9488 15.3957 21.3904 15.3383C20.7629 15.7975 20.1355 16.2567 19.508 16.7211C17.8694 17.9213 16.2256 19.1267 14.587 20.3269Z" fill="white"/>
</g>
<defs>
<clipPath id="clip0_804:20435">
<rect width="85" height="22" fill="white"/>
</clipPath>
</defs>
</svg>
