<svg width="26" height="26" viewBox="0 0 26 26" fill="none" xmlns="http://www.w3.org/2000/svg">
<rect y="0.399506" width="25" height="3" fill="white"/>
<rect y="22.3995" width="25" height="3" fill="white"/>
<rect y="11.3995" width="25" height="3" fill="white"/>
</svg>
